35
18
###################################
#.................................#
#.................................#
#.................................#
#......HHHHHHHHHHHHHHHHH..........#
#..............H..................#
#..............H..................#
#..............H..................#
#......$$$.....H.....$$$..........#
#......1..$$$..H..$$$..2..........#
#.........$$$..H..$$$.............#
#......$$$.....H.....$$$..........#
#..............H..................#
#..............H..................#
#..............H..................#
#.................................#
#.................................#
###################################