30
28
##############################
#............................#
#............................#
#............................#
#............................#
#............................#
#............................#
#....@@@@@@@....@@@@@@.......#
#.......1..@....@..2.@.......#
#..........@....@@@@@@.......#
#.....@@@@@@....@............#
#.....@....@....@............#
#.....@@@@@@....@............#
#............................#
#............................#
#............................#
#............................#
#............................#
#............................#
#............................#
#............................#
#............................#
#........@@@@@@@@............#
#....@@@@@@@@@@@@............#
#.....@@@@@@@@@@@............#
#............................#
#............................#
##############################
